# Fdb version 3
["pdflatex"] 1616782361 "c:/Users/Francisco/Desktop/learn-fs/learn-fs.tex" "c:/Users/Francisco/Desktop/learn-fs/learn-fs.pdf" "learn-fs" 1616791440
  "C:/Program Files/MiKTeX/fonts/tfm/jknappen/ec/tcrm1095.tfm" 993062508 1460 8005ce585ff351dff78998923504da5e ""
  "C:/Program Files/MiKTeX/fonts/tfm/public/cm/cmbx10.tfm" 1136765053 1328 c834bbb027764024c09d3d2bf908b5f0 ""
  "C:/Program Files/MiKTeX/fonts/tfm/public/cm/cmbx12.tfm" 1136765053 1324 c910af8c371558dc20f2d7822f66fe64 ""
  "C:/Program Files/MiKTeX/fonts/tfm/public/cm/cmmi10.tfm" 1136765053 1528 abec98dbc43e172678c11b3b9031252a ""
  "C:/Program Files/MiKTeX/fonts/tfm/public/cm/cmmi12.tfm" 1136765053 1524 4414a8315f39513458b80dfc63bff03a ""
  "C:/Program Files/MiKTeX/fonts/tfm/public/cm/cmmi6.tfm" 1136765053 1512 f21f83efb36853c0b70002322c1ab3ad ""
  "C:/Program Files/MiKTeX/fonts/tfm/public/cm/cmmi8.tfm" 1136765053 1520 eccf95517727cb11801f4f1aee3a21b4 ""
  "C:/Program Files/MiKTeX/fonts/tfm/public/cm/cmr10.tfm" 1136765053 1296 45809c5a464d5f32c8f98ba97c1bb47f ""
  "C:/Program Files/MiKTeX/fonts/tfm/public/cm/cmr12.tfm" 1136765053 1288 655e228510b4c2a1abe905c368440826 ""
  "C:/Program Files/MiKTeX/fonts/tfm/public/cm/cmr17.tfm" 1136765053 1292 296a67155bdbfc32aa9c636f21e91433 ""
  "C:/Program Files/MiKTeX/fonts/tfm/public/cm/cmr6.tfm" 1136765053 1300 b62933e007d01cfd073f79b963c01526 ""
  "C:/Program Files/MiKTeX/fonts/tfm/public/cm/cmr8.tfm" 1136765053 1292 21c1c5bfeaebccffdb478fd231a0997d ""
  "C:/Program Files/MiKTeX/fonts/tfm/public/cm/cmsy10.tfm" 1136765053 1124 6c73e740cf17375f03eec0ee63599741 ""
  "C:/Program Files/MiKTeX/fonts/tfm/public/cm/cmsy6.tfm" 1136765053 1116 933a60c408fc0a863a92debe84b2d294 ""
  "C:/Program Files/MiKTeX/fonts/tfm/public/cm/cmsy8.tfm" 1136765053 1120 8b7d695260f3cff42e636090a8002094 ""
  "C:/Program Files/MiKTeX/fonts/tfm/public/cm/cmti10.tfm" 1136765053 1480 aa8e34af0eb6a2941b776984cf1dfdc4 ""
  "C:/Program Files/MiKTeX/fonts/type1/public/amsfonts/cm/cmbx10.pfb" 1247596666 34811 78b52f49e893bcba91bd7581cdc144c0 ""
  "C:/Program Files/MiKTeX/fonts/type1/public/amsfonts/cm/cmbx12.pfb" 1247596666 32080 340ef9bf63678554ee606688e7b5339d ""
  "C:/Program Files/MiKTeX/fonts/type1/public/amsfonts/cm/cmmi10.pfb" 1247596667 36299 5f9df58c2139e7edcf37c8fca4bd384d ""
  "C:/Program Files/MiKTeX/fonts/type1/public/amsfonts/cm/cmr10.pfb" 1247596667 35752 024fb6c41858982481f6968b5fc26508 ""
  "C:/Program Files/MiKTeX/fonts/type1/public/amsfonts/cm/cmr12.pfb" 1247596667 32722 d7379af29a190c3f453aba36302ff5a9 ""
  "C:/Program Files/MiKTeX/fonts/type1/public/amsfonts/cm/cmsy10.pfb" 1247596667 32569 5e5ddc8df908dea60932f3c484a54c0d ""
  "C:/Program Files/MiKTeX/fonts/type1/public/amsfonts/cm/cmti10.pfb" 1247596667 37944 359e864bd06cde3b1cf57bb20757fb06 ""
  "C:/Program Files/MiKTeX/tex/context/base/mkii/supp-pdf.mkii" 1580390158 71627 94eb9990bed73c364d7f53f960cc8c5b ""
  "C:/Program Files/MiKTeX/tex/latex/base/article.cls" 1603697616 20145 aad8c3dd3bc36e260347b84002182bc2 ""
  "C:/Program Files/MiKTeX/tex/latex/base/omlcmr.fd" 1603697618 2471 93c7889092ef3d83d375b915c5381dfe ""
  "C:/Program Files/MiKTeX/tex/latex/base/omscmr.fd" 1603697618 2470 59e43b502a8bea3a12f4954945302e40 ""
  "C:/Program Files/MiKTeX/tex/latex/base/size11.clo" 1603697616 8465 2dd6985139dc15bc64ec71e501e76e40 ""
  "C:/Program Files/MiKTeX/tex/latex/graphics-cfg/color.cfg" 1465894292 1213 620bba36b25224fa9b7e1ccb4ecb76fd ""
  "C:/Program Files/MiKTeX/tex/latex/graphics-def/pdftex.def" 1601878198 19103 48d29b6e2a64cb717117ef65f107b404 ""
  "C:/Program Files/MiKTeX/tex/latex/graphics/color.sty" 1601745126 7300 5b27b7e61091c6128cd6300e21704e4b ""
  "C:/Program Files/MiKTeX/tex/latex/graphics/keyval.sty" 1601745126 2677 e3b24ff953e5b58d924f163d25380312 ""
  "C:/Program Files/MiKTeX/tex/latex/l3backend/l3backend-pdftex.def" 1600956116 23704 02c466ff883953a445c97e55638005fc ""
  "C:/Program Files/MiKTeX/tex/latex/listings/listings.cfg" 1585220135 1879 e31effa752c61538383451ae21332364 ""
  "C:/Program Files/MiKTeX/tex/latex/listings/listings.sty" 1585220135 83225 64e57373f36316e4a09b517cbf1aba2e ""
  "C:/Program Files/MiKTeX/tex/latex/listings/lstmisc.sty" 1585220135 79106 ee25ce086f4a79d8cf73bac6f94c02a5 ""
  "C:/Users/Francisco/AppData/Local/MiKTeX/fonts/pk/ljfour/jknappen/ec/dpi600/tcrm1095.pk" 1616634187 12668 9b1f91a0f01fa7afd3d944e501f26eed ""
  "C:/Users/Francisco/AppData/Local/MiKTeX/miktex/data/le/pdftex/pdflatex.fmt" 1615434141 10284496 d1a45dc42b309465ad1358b24f83d7f1 ""
  "C:/Users/Francisco/AppData/Local/MiKTeX/pdftex/config/pdftex.map" 1615434133 155699 14df97f4c8b55001b4aea77de56b60c8 ""
  "c:/Users/Francisco/Desktop/learn-fs/learn-fs.aux" 1616782362 4342 d530cca854c712c34a8f6213957d7572 ""
  "c:/Users/Francisco/Desktop/learn-fs/learn-fs.tex" 1616791439 9764 e2d9c8911062d1d532b424f8e21e5ba6 ""
  "learn-fs.aux" 1616782362 4342 d530cca854c712c34a8f6213957d7572 "pdflatex"
  "learn-fs.tex" 1616791439 9764 e2d9c8911062d1d532b424f8e21e5ba6 ""
  "learn-fs.toc" 1616782362 2628 e340c1c9361924014e73013e99f501d5 "pdflatex"
  (generated)
  "learn-fs.pdf"
  "learn-fs.aux"
  "learn-fs.toc"
  "c:/Users/Francisco/Desktop/learn-fs/learn-fs.pdf"
  "learn-fs.log"
  "c:/Users/Francisco/Desktop/learn-fs/learn-fs.log"
